…
A table showing change in measurements

``` r
new_data %>% 
    group_by(PatientID) %>% 
    filter(ICULOS %in% sort(ICULOS)[c(length(ICULOS), (length(ICULOS)-1))]) %>% 
    select(PatientID, HR, Temp, Resp) %>% 
    summarise(diff_hr = HR[2]-HR[1],
              diff_temp = Temp[2]-Temp[1],
              diff_resp = Resp[2]-Resp[1])
```

    # A tibble: 50 × 4
       PatientID diff_hr diff_temp diff_resp
       <chr>       <dbl>     <dbl>     <dbl>
     1 000073         -4    NA             2
     2 000135         10     0.100         0
     3 000287         NA    NA            NA
     4 000346        -10    NA            -2
     5 000617         NA    NA            NA
     6 001145          1    -0.200        -2
     7 001467        -13    NA             3
     8 001500         -5    NA             0
     9 001563         NA    NA            NA
    10 001748          1    NA            -9
    # ℹ 40 more rows
